{
  "babel-core": "^6.26.0",
  "babel-eslint": "^8.0.1",
  "babel-jest": "^21.2.0",
  "babel-loader": "^7.1.2",
  "babel-plugin-lodash": "^3.2.11",
  "babel-plugin-styled-components": "^1.2.0",
  "babel-plugin-syntax-dynamic-import": "^6.18.0",
  "babel-plugin-transform-es2015-modules-commonjs": "^6.26.0",
  "babel-polyfill": "^6.26.0",
  "babel-preset-env": "^1.6.0",
  "babel-preset-react": "^6.24.1",
  "babel-preset-stage-2": "^6.24.1",
  "body-parser": "^1.18.2",
  "bundle-loader": "^0.5.5",
  "colors": "^1.1.2",
  "compression-webpack-plugin": "^1.0.0",
  "eslint": "^4.7.2",
  "eslint-config-airbnb": "^15.1.0",
  "eslint-loader": "^1.9.0",
  "eslint-plugin-import": "^2.7.0",
  "eslint-plugin-jsx-a11y": "^6.0.2",
  "eslint-plugin-react": "^7.4.0",
  "express": "^4.15.5",
  "favicons-webpack-plugin": "^0.0.7",
  "file-loader": "^0.11.2",
  "html-webpack-plugin": "^2.30.1",
  "husky": "^0.14.3",
  "image-webpack-loader": "^3.4.2",
  "ip": "^1.1.5",
  "jest": "^21.2.0",
  "react-dev-utils": "^4.1.0",
  "redux-devtools-extension": "^2.13.2",
  "redux-logger": "^3.0.6",
  "socket.io": "^2.0.3",
  "spa-http-server": "^0.9.0",
  "stylelint": "^8.1.1",
  "stylelint-config-standard": "^17.0.0",
  "stylelint-processor-styled-components": "^1.0.0",
  "svg-react-loader": "^0.4.5",
  "webpack": "^3.6.0",
  "webpack-dev-server": "^2.9.0",
  "webpack-logging-plugin": "^0.1.2",
  "webpack-manifest-plugin": "^1.3.2"
}
